Started at Wed Oct 14 20:41:38 GMT 2020
Finished at Wed Oct 14 20:41:38 GMT 2020. 5ms
Started at Wed Oct 14 20:42:38 GMT 2020
Finished at Wed Oct 14 20:42:38 GMT 2020. 1ms
Started at Wed Oct 14 20:43:38 GMT 2020
Finished at Wed Oct 14 20:43:38 GMT 2020. 1ms
Started at Wed Oct 14 20:44:38 GMT 2020
Finished at Wed Oct 14 20:44:38 GMT 2020. 1ms
Started at Wed Oct 14 20:45:38 GMT 2020
Finished at Wed Oct 14 20:45:38 GMT 2020. 1ms
Started at Wed Oct 14 20:46:38 GMT 2020
Finished at Wed Oct 14 20:46:38 GMT 2020. 1ms
Started at Wed Oct 14 20:47:38 GMT 2020
Finished at Wed Oct 14 20:47:38 GMT 2020. 1ms
Started at Wed Oct 14 20:48:38 GMT 2020
Finished at Wed Oct 14 20:48:38 GMT 2020. 1ms
Started at Wed Oct 14 20:49:38 GMT 2020
Finished at Wed Oct 14 20:49:38 GMT 2020. 1ms
Started at Wed Oct 14 20:50:38 GMT 2020
Finished at Wed Oct 14 20:50:38 GMT 2020. 1ms
Started at Wed Oct 14 20:51:38 GMT 2020
Finished at Wed Oct 14 20:51:38 GMT 2020. 1ms
Started at Wed Oct 14 20:52:38 GMT 2020
Finished at Wed Oct 14 20:52:38 GMT 2020. 1ms
Started at Wed Oct 14 20:53:38 GMT 2020
Finished at Wed Oct 14 20:53:38 GMT 2020. 1ms
Started at Wed Oct 14 20:54:38 GMT 2020
Finished at Wed Oct 14 20:54:38 GMT 2020. 0ms
Started at Wed Oct 14 20:55:38 GMT 2020
Finished at Wed Oct 14 20:55:38 GMT 2020. 0ms
Started at Wed Oct 14 20:56:38 GMT 2020
Finished at Wed Oct 14 20:56:38 GMT 2020. 1ms
Started at Wed Oct 14 20:57:38 GMT 2020
Finished at Wed Oct 14 20:57:38 GMT 2020. 0ms
Started at Wed Oct 14 20:58:38 GMT 2020
Finished at Wed Oct 14 20:58:38 GMT 2020. 0ms
Started at Wed Oct 14 20:59:38 GMT 2020
Finished at Wed Oct 14 20:59:38 GMT 2020. 0ms
Started at Wed Oct 14 21:00:38 GMT 2020
Finished at Wed Oct 14 21:00:38 GMT 2020. 1ms
Started at Wed Oct 14 21:01:38 GMT 2020
Finished at Wed Oct 14 21:01:38 GMT 2020. 1ms
Started at Wed Oct 14 21:02:38 GMT 2020
Finished at Wed Oct 14 21:02:38 GMT 2020. 1ms
Started at Wed Oct 14 21:03:38 GMT 2020
Finished at Wed Oct 14 21:03:38 GMT 2020. 1ms
Started at Wed Oct 14 21:04:38 GMT 2020
Finished at Wed Oct 14 21:04:38 GMT 2020. 0ms
Started at Wed Oct 14 21:05:38 GMT 2020
Finished at Wed Oct 14 21:05:38 GMT 2020. 0ms
Started at Wed Oct 14 21:06:38 GMT 2020
Finished at Wed Oct 14 21:06:38 GMT 2020. 0ms
Started at Wed Oct 14 21:07:38 GMT 2020
Finished at Wed Oct 14 21:07:38 GMT 2020. 0ms
Started at Wed Oct 14 21:08:38 GMT 2020
Finished at Wed Oct 14 21:08:38 GMT 2020. 0ms
Started at Wed Oct 14 21:09:38 GMT 2020
Finished at Wed Oct 14 21:09:38 GMT 2020. 1ms
Started at Wed Oct 14 21:10:38 GMT 2020
Finished at Wed Oct 14 21:10:38 GMT 2020. 0ms
Started at Wed Oct 14 21:11:38 GMT 2020
Finished at Wed Oct 14 21:11:38 GMT 2020. 0ms
Started at Wed Oct 14 21:12:38 GMT 2020
Finished at Wed Oct 14 21:12:38 GMT 2020. 0ms
Started at Wed Oct 14 21:13:38 GMT 2020
Finished at Wed Oct 14 21:13:38 GMT 2020. 0ms
Started at Wed Oct 14 21:14:38 GMT 2020
Finished at Wed Oct 14 21:14:38 GMT 2020. 0ms
Started at Wed Oct 14 21:15:38 GMT 2020
Finished at Wed Oct 14 21:15:38 GMT 2020. 0ms
Started at Wed Oct 14 21:16:38 GMT 2020
Finished at Wed Oct 14 21:16:38 GMT 2020. 1ms
Started at Wed Oct 14 21:17:38 GMT 2020
Finished at Wed Oct 14 21:17:38 GMT 2020. 0ms
Started at Wed Oct 14 21:18:38 GMT 2020
Finished at Wed Oct 14 21:18:38 GMT 2020. 1ms
Started at Wed Oct 14 21:19:38 GMT 2020
Finished at Wed Oct 14 21:19:38 GMT 2020. 0ms
Started at Wed Oct 14 21:20:38 GMT 2020
Finished at Wed Oct 14 21:20:38 GMT 2020. 0ms
Started at Wed Oct 14 21:21:38 GMT 2020
Finished at Wed Oct 14 21:21:38 GMT 2020. 0ms
Started at Wed Oct 14 21:22:38 GMT 2020
Finished at Wed Oct 14 21:22:38 GMT 2020. 0ms
Started at Wed Oct 14 21:23:38 GMT 2020
Finished at Wed Oct 14 21:23:38 GMT 2020. 0ms
Started at Wed Oct 14 21:24:38 GMT 2020
Finished at Wed Oct 14 21:24:38 GMT 2020. 0ms
Started at Wed Oct 14 21:25:38 GMT 2020
Finished at Wed Oct 14 21:25:38 GMT 2020. 0ms
Started at Wed Oct 14 21:26:38 GMT 2020
Finished at Wed Oct 14 21:26:38 GMT 2020. 0ms
Started at Wed Oct 14 21:27:38 GMT 2020
Finished at Wed Oct 14 21:27:38 GMT 2020. 0ms
Started at Wed Oct 14 21:28:38 GMT 2020
Finished at Wed Oct 14 21:28:38 GMT 2020. 0ms
Started at Wed Oct 14 21:29:38 GMT 2020
Finished at Wed Oct 14 21:29:38 GMT 2020. 0ms
Started at Wed Oct 14 21:30:38 GMT 2020
Finished at Wed Oct 14 21:30:38 GMT 2020. 0ms
Started at Wed Oct 14 21:31:38 GMT 2020
Finished at Wed Oct 14 21:31:38 GMT 2020. 1ms
Started at Wed Oct 14 21:32:38 GMT 2020
Finished at Wed Oct 14 21:32:38 GMT 2020. 0ms
Started at Wed Oct 14 21:33:38 GMT 2020
Finished at Wed Oct 14 21:33:38 GMT 2020. 0ms
Started at Wed Oct 14 21:34:38 GMT 2020
Finished at Wed Oct 14 21:34:38 GMT 2020. 0ms
Started at Wed Oct 14 21:35:38 GMT 2020
Finished at Wed Oct 14 21:35:38 GMT 2020. 0ms
Started at Wed Oct 14 21:36:38 GMT 2020
Finished at Wed Oct 14 21:36:38 GMT 2020. 0ms
Started at Wed Oct 14 21:37:38 GMT 2020
Finished at Wed Oct 14 21:37:38 GMT 2020. 0ms
Started at Wed Oct 14 21:38:38 GMT 2020
Finished at Wed Oct 14 21:38:38 GMT 2020. 0ms
Started at Wed Oct 14 21:39:38 GMT 2020
Finished at Wed Oct 14 21:39:38 GMT 2020. 0ms
Started at Wed Oct 14 21:40:38 GMT 2020
Finished at Wed Oct 14 21:40:38 GMT 2020. 0ms
Started at Wed Oct 14 21:41:38 GMT 2020
Finished at Wed Oct 14 21:41:38 GMT 2020. 0ms
Started at Wed Oct 14 21:42:38 GMT 2020
Finished at Wed Oct 14 21:42:38 GMT 2020. 0ms
Started at Wed Oct 14 21:43:38 GMT 2020
Finished at Wed Oct 14 21:43:38 GMT 2020. 0ms
Started at Wed Oct 14 21:44:38 GMT 2020
Finished at Wed Oct 14 21:44:38 GMT 2020. 0ms
Started at Wed Oct 14 21:45:38 GMT 2020
Finished at Wed Oct 14 21:45:38 GMT 2020. 0ms
Started at Wed Oct 14 21:46:38 GMT 2020
Finished at Wed Oct 14 21:46:38 GMT 2020. 0ms
Started at Wed Oct 14 21:47:38 GMT 2020
Finished at Wed Oct 14 21:47:38 GMT 2020. 0ms
Started at Wed Oct 14 21:48:38 GMT 2020
Finished at Wed Oct 14 21:48:38 GMT 2020. 0ms
Started at Wed Oct 14 21:49:38 GMT 2020
Finished at Wed Oct 14 21:49:38 GMT 2020. 0ms
Started at Wed Oct 14 21:50:38 GMT 2020
Finished at Wed Oct 14 21:50:38 GMT 2020. 0ms
Started at Wed Oct 14 21:51:38 GMT 2020
Finished at Wed Oct 14 21:51:38 GMT 2020. 0ms
Started at Wed Oct 14 21:52:38 GMT 2020
Finished at Wed Oct 14 21:52:38 GMT 2020. 0ms
Started at Wed Oct 14 21:53:38 GMT 2020
Finished at Wed Oct 14 21:53:38 GMT 2020. 0ms
Started at Wed Oct 14 21:54:38 GMT 2020
Finished at Wed Oct 14 21:54:38 GMT 2020. 0ms
Started at Wed Oct 14 21:55:38 GMT 2020
Finished at Wed Oct 14 21:55:38 GMT 2020. 1ms
Started at Wed Oct 14 21:56:38 GMT 2020
Finished at Wed Oct 14 21:56:38 GMT 2020. 0ms
Started at Wed Oct 14 21:57:38 GMT 2020
Finished at Wed Oct 14 21:57:38 GMT 2020. 0ms
Started at Wed Oct 14 21:58:38 GMT 2020
Finished at Wed Oct 14 21:58:38 GMT 2020. 0ms
Started at Wed Oct 14 21:59:38 GMT 2020
Finished at Wed Oct 14 21:59:38 GMT 2020. 0ms
Started at Wed Oct 14 22:00:38 GMT 2020
Finished at Wed Oct 14 22:00:38 GMT 2020. 0ms
Started at Wed Oct 14 22:01:38 GMT 2020
Finished at Wed Oct 14 22:01:38 GMT 2020. 0ms
Started at Wed Oct 14 22:02:38 GMT 2020
Finished at Wed Oct 14 22:02:38 GMT 2020. 0ms
Started at Wed Oct 14 22:03:38 GMT 2020
Finished at Wed Oct 14 22:03:38 GMT 2020. 1ms
Started at Wed Oct 14 22:04:38 GMT 2020
Finished at Wed Oct 14 22:04:38 GMT 2020. 0ms
Started at Wed Oct 14 22:05:38 GMT 2020
Finished at Wed Oct 14 22:05:38 GMT 2020. 0ms
Started at Wed Oct 14 22:06:38 GMT 2020
Finished at Wed Oct 14 22:06:38 GMT 2020. 0ms
Started at Wed Oct 14 22:07:38 GMT 2020
Finished at Wed Oct 14 22:07:38 GMT 2020. 0ms
Started at Wed Oct 14 22:08:38 GMT 2020
Finished at Wed Oct 14 22:08:38 GMT 2020. 1ms
Started at Wed Oct 14 22:09:38 GMT 2020
Finished at Wed Oct 14 22:09:38 GMT 2020. 0ms
Started at Wed Oct 14 22:10:38 GMT 2020
Finished at Wed Oct 14 22:10:38 GMT 2020. 0ms
Started at Wed Oct 14 22:11:38 GMT 2020
Finished at Wed Oct 14 22:11:38 GMT 2020. 0ms
Started at Wed Oct 14 22:12:38 GMT 2020
Finished at Wed Oct 14 22:12:38 GMT 2020. 0ms
Started at Wed Oct 14 22:13:38 GMT 2020
Finished at Wed Oct 14 22:13:38 GMT 2020. 0ms
Started at Wed Oct 14 22:14:38 GMT 2020
Finished at Wed Oct 14 22:14:38 GMT 2020. 0ms
Started at Wed Oct 14 22:15:38 GMT 2020
Finished at Wed Oct 14 22:15:38 GMT 2020. 0ms
Started at Wed Oct 14 22:16:38 GMT 2020
Finished at Wed Oct 14 22:16:38 GMT 2020. 0ms
Started at Wed Oct 14 22:17:38 GMT 2020
Finished at Wed Oct 14 22:17:38 GMT 2020. 1ms
Started at Wed Oct 14 22:18:38 GMT 2020
Finished at Wed Oct 14 22:18:38 GMT 2020. 0ms
